NOLH Problem Set
…
## Parsed with column specification:
## cols(
##   categorical = col_character(),
##   categorical_1 = col_character(),
##   continuous = col_character(),
##   continuous_1 = col_character(),
##   X5 = col_logical()
## )

# the raw file
baseDesign

## # A tibble: 32 x 5
##    categorical categorical_1 continuous         continuous_1      X5   
##    <chr>       <chr>         <chr>              <chr>             <lgl>
##  1 3           2             27                 27                NA   
##  2 M           M             M                  M                 NA   
##  3 x1          x2            x3                 x4                NA   
##  4 1.0         1.0           24.65              15.73             NA   
##  5 1.0         1.0           3.0299999999999994 6.25              NA   
##  6 3.0         2.0           7.27               20.35             NA   
##  7 3.0         2.0           25.59              17.0              NA   
##  8 3.0         2.0           1.7799999999999994 7.0               NA   
##  9 2.0         1.0           16.08              9.309999999999999 NA   
## 10 3.0         2.0           12.95              21.77             NA   
## #  with 22 more rows
…
